…
```r
#Mean and Median steps per Day
dailySummary[,c("date","meanSteps")]
```

```
## # A tibble: 61 x 2
##          date meanSteps
##        <date>     <dbl>
##  1 2012-10-01       NaN
##  2 2012-10-02   0.43750
##  3 2012-10-03  39.41667
##  4 2012-10-04  42.06944
##  5 2012-10-05  46.15972
##  6 2012-10-06  53.54167
##  7 2012-10-07  38.24653
##  8 2012-10-08       NaN
##  9 2012-10-09  44.48264
## 10 2012-10-10  34.37500
## # ... with 51 more rows
```

```r
dailySummary[,c("date","medianSteps")]
```

```
## # A tibble: 61 x 2
##          date medianSteps
##        <date>       <dbl>
##  1 2012-10-01          NA
##  2 2012-10-02           0
##  3 2012-10-03           0
##  4 2012-10-04           0
##  5 2012-10-05           0
##  6 2012-10-06           0
##  7 2012-10-07           0
##  8 2012-10-08          NA
##  9 2012-10-09           0
## 10 2012-10-10           0
## # ... with 51 more rows
```
…
```r
#RESULT: Since median was considered to impute and most of those were 0s, there is not a significant difference between the original plot and the new plot

#Mean and Median steps per Day after imputing
newdailySummary[,c("date","meanSteps")]
```

```
## # A tibble: 61 x 2
##          date meanSteps
##        <date>     <dbl>
##  1 2012-10-01  3.961806
##  2 2012-10-02  0.437500
##  3 2012-10-03 39.416667
##  4 2012-10-04 42.069444
##  5 2012-10-05 46.159722
##  6 2012-10-06 53.541667
##  7 2012-10-07 38.246528
##  8 2012-10-08  3.961806
##  9 2012-10-09 44.482639
## 10 2012-10-10 34.375000
## # ... with 51 more rows
```

```r
newdailySummary[,c("date","medianSteps")]
```

```
## # A tibble: 61 x 2
##          date medianSteps
##        <date>       <dbl>
##  1 2012-10-01           0
##  2 2012-10-02           0
##  3 2012-10-03           0
##  4 2012-10-04           0
##  5 2012-10-05           0
##  6 2012-10-06           0
##  7 2012-10-07           0
##  8 2012-10-08           0
##  9 2012-10-09           0
## 10 2012-10-10           0
## # ... with 51 more rows
```
…
